…
``` r
d %>% 
  modelr::data_grid(did, urban) %>% 
  tidybayes::add_predicted_draws(b_5)
```

    ## # A tibble: 480,000 x 7
    ## # Groups:   did, urban, .row [120]
    ##    did   urban  .row .chain .iteration .draw .prediction
    ##    <fct> <int> <int>  <int>      <int> <int>       <int>
    ##  1 1         0     1     NA         NA     1           0
    ##  2 1         0     1     NA         NA     2           0
    ##  3 1         0     1     NA         NA     3           1
    ##  4 1         0     1     NA         NA     4           0
    ##  5 1         0     1     NA         NA     5           0
    ##  6 1         0     1     NA         NA     6           1
    ##  7 1         0     1     NA         NA     7           0
    ##  8 1         0     1     NA         NA     8           0
    ##  9 1         0     1     NA         NA     9           0
    ## 10 1         0     1     NA         NA    10           0
    ## # ... with 479,990 more rows
…
``` r
tidyfitted(b_5)
```

    ## # A tibble: 104 x 7
    ##    did   urban type  Estimate Est.Error  Q2.5 Q97.5
    ##    <fct> <int> <chr>    <dbl>     <dbl> <dbl> <dbl>
    ##  1 1         1 r        0.385    0.0560 0.279 0.493
    ##  2 1         0 r        0.182    0.0458 0.101 0.277
    ##  3 2         0 r        0.343    0.0769 0.203 0.504
    ##  4 3         1 r        0.559    0.133  0.305 0.825
    ##  5 4         1 r        0.670    0.104  0.465 0.865
    ##  6 4         0 r        0.306    0.0827 0.159 0.480
    ##  7 5         1 r        0.493    0.128  0.247 0.746
    ##  8 5         0 r        0.347    0.0672 0.221 0.485
    ##  9 6         1 r        0.558    0.116  0.338 0.775
    ## 10 6         0 r        0.264    0.0497 0.171 0.366
    ## # ... with 94 more rows
…
